…
theme_set(theme_rasilab())
```

# Read in data

``` r
counts <- read_tsv("../rawdata/20191223_fluc_nluc.tsv") %>%
  print()
```

    ## # A tibble: 108 × 3
    ##    well  assay counts
    ##    <chr> <chr>  <dbl>
    ##  1 B2    fluc       2
    ##  2 B3    fluc    1242
    ##  3 B4    fluc     610
    ##  4 B5    fluc     761
    ##  5 B6    fluc     486
    ##  6 B7    fluc      52
    ##  7 B8    fluc     285
    ##  8 B9    fluc      42
    ##  9 B10   fluc     642
    ## 10 C2    fluc     885
    ## # … with 98 more rows
    ## # ℹ Use `print(n = ...)` to see more rows

# Read in annotationsl

``` r
annotations <- read_tsv("../annotations/sampleannotations.tsv") %>%
  print()
```

    ## # A tibble: 54 × 7
    ##    well  reporter label              replicate status label_order status_order
    ##    <chr> <chr>    <chr>                  <dbl> <chr>        <dbl>        <dbl>
    ##  1 B2    mock     mock                       1 <NA>             0           NA
    ##  2 B3    pASHS64  WT UL4                     1 <NA>             1           NA
    ##  3 B4    pTBHS1   P22A                       1 <NA>             2           NA
    ##  4 B5    pTBHS2   uORF2 no AUG               1 <NA>             3           NA
    ##  5 B6    pTBHS3   uORF2 strong Kozak         1 <NA>             4           NA
    ##  6 B7    pTBHS18  GC52                       1 WT              11            1
    ##  7 B8    pTBHS19  GC62                       1 WT              12            1
    ##  8 B9    pTBHS20  GC78                       1 WT              14            1
    ##  9 B10   pTBHS21  GC92                       1 WT              15            1
    ## 10 C10   mock     mock                       2 <NA>             0           NA
    ## # … with 44 more rows
    ## # ℹ Use `print(n = ...)` to see more rows
…
