…
``` r
library(plotrix)
library(tidyverse)
library(rasilabRtemplates)
```

# Read in data

``` r
counts <- read_csv("../rawdata/20220407_fluc_nluc.csv") %>%
  print()
```

    ## # A tibble: 114 × 3
    ##    well  assay counts
    ##    <chr> <chr>  <dbl>
    ##  1 B2    fluc      32
    ##  2 B3    fluc    4830
    ##  3 B4    fluc   13618
    ##  4 B5    fluc    6739
    ##  5 B6    fluc   12705
    ##  6 B7    fluc   14956
    ##  7 B8    fluc   20605
    ##  8 B9    fluc   20144
    ##  9 B10   fluc   14608
    ## 10 B11   fluc   15753
    ## # … with 104 more rows
    ## # ℹ Use `print(n = ...)` to see more rows

# Read in annotations

``` r
annotations <- read_csv("../annotations/sampleannotations.csv") %>%
  print()
```

    ## # A tibble: 57 × 6
    ##    well  reporter label                  replicate P22A  label_order
    ##    <chr> <chr>    <chr>                      <dbl> <chr>       <dbl>
    ##  1 B2    mock     mock                           1 <NA>           NA
    ##  2 B3    pASHS64  gp48UTR                        1 <NA>           11
    ##  3 B4    pTBHS1   gp48UTR-no-stall               1 <NA>            2
    ##  4 B5    pTBHS2   gp48UTR-no-AUG                 1 <NA>            3
    ##  5 B6    pTBHS3   gp48UTR-stronger-start         1 <NA>            1
    ##  6 B7    pHPHS579 1-flag-longer                  1 <NA>           10
    ##  7 B8    pHPHS580 2-flag-longer                  1 <NA>            9
    ##  8 B9    pHPHS581 3-flag-longer                  1 <NA>            8
    ##  9 B10   pHPHS582 4-flag-longer                  1 <NA>            7
    ## 10 B11   pHPHS583 7-flag-longer                  1 <NA>            6
    ## # … with 47 more rows
    ## # ℹ Use `print(n = ...)` to see more rows
…
