…
theme_set(theme_rasilab())
```

# Read in data

``` r
counts <- read_csv("../rawdata/20220413_fluc_nluc.csv") %>%
  print()
```

    ## # A tibble: 64 × 3
    ##    well  assay counts
    ##    <chr> <chr>  <dbl>
    ##  1 B2    fluc    1147
    ##  2 B4    fluc     833
    ##  3 B6    fluc      15
    ##  4 B8    fluc    1083
    ##  5 B10   fluc    1181
    ##  6 B12   fluc       2
    ##  7 C2    fluc    1368
    ##  8 C4    fluc    1645
    ##  9 C6    fluc    1395
    ## 10 C8    fluc    1209
    ## # … with 54 more rows
    ## # ℹ Use `print(n = ...)` to see more rows

# Read in annotations

``` r
annotations <- read_csv("../annotations/sampleannotations.csv") %>%
  print()
```

    ## # A tibble: 32 × 6
    ##    well  reporter label                             replicate P22A  label_order
    ##    <chr> <chr>    <chr>                                 <dbl> <chr>       <dbl>
    ##  1 B2    pTBHS12  GAPDH GACACC stop before uORF2            1 no              2
    ##  2 B4    pTBHS13  GAPDH GACACC stop before uORF2            1 yes             2
    ##  3 B6    pTBHS23  GAPDH no start stop before uORF2          1 no              1
    ##  4 B8    pTBHS24  GAPDH no start stop before uORF2          1 yes             1
    ##  5 B10   pTBHS58  GAPDH GACACC 2 eYFP codons longer         1 no              4
    ##  6 B12   mock     mock                                      1 <NA>           NA
    ##  7 C2    pTBHS59  GAPDH GACACC 2 eYFP codons longer         1 yes             4
    ##  8 C4    pTBHS60  GAPDH no AUG 2 eYFP codons longer         1 no              3
    ##  9 C6    pTBHS61  GAPDH no AUG 2 eYFP codons longer         1 yes             3
    ## 10 C8    pTBHS12  GAPDH GACACC stop before uORF2            2 no              2
    ## # … with 22 more rows
    ## # ℹ Use `print(n = ...)` to see more rows
…
