…
``` r
library(plotrix)
library(tidyverse)
library(rasilabRtemplates)
```

# Read in data

``` r
counts <- read_tsv("../rawdata/20191021_fluc_nluc.tsv") %>% 
  print()
```

    ## # A tibble: 120 × 3
    ##    well  assay  counts
    ##    <chr> <chr>   <dbl>
    ##  1 B2    nluc     2432
    ##  2 B3    nluc   640617
    ##  3 B4    nluc  4082121
    ##  4 B5    nluc  2221624
    ##  5 B6    nluc    13851
    ##  6 B7    nluc   503005
    ##  7 B8    nluc   694679
    ##  8 B9    nluc  1129426
    ##  9 B10   nluc    54578
    ## 10 B11   nluc   243429
    ## # … with 110 more rows
    ## # ℹ Use `print(n = ...)` to see more rows

# Read in annotations

``` r
annotations <- read_tsv("../annotations/sampleannotations.tsv") %>% 
  print()
```

    ## # A tibble: 60 × 7
    ##    well  reporter label                          replic…¹ status label…² statu…³
    ##    <chr> <chr>    <chr>                             <dbl> <chr>    <dbl>   <dbl>
    ##  1 B2    mock     mock                                  1 <NA>        NA      NA
    ##  2 B3    pASHS64  WT UL4                                1 <NA>        NA      NA
    ##  3 B4    pTBHS1   P22A                                  1 <NA>        NA      NA
    ##  4 B5    pTBHS2   uORF2 no AUG                          1 <NA>        NA      NA
    ##  5 B6    pTBHS3   uORF2 strong Kozak                    1 <NA>        NA      NA
    ##  6 B7    pTBHS12  GAPDH GACACC stop before uORF2        1 WT           2       1
    ##  7 B8    pTBHS13  GAPDH GACACC stop before uORF2        1 no st…       2       2
    ##  8 B9    pTBHS40  K10Q S12P                             1 <NA>        NA      NA
    ##  9 B10   pTBHS41  GAPDH ACTGTC stop before uORF2        1 WT           5       1
    ## 10 B11   pTBHS42  GAPDH CATTGT stop before uORF2        1 WT           7       1
    ## # … with 50 more rows, and abbreviated variable names ¹​replicate, ²​label_order,
    ## #   ³​status_order
    ## # ℹ Use `print(n = ...)` to see more rows
…
