…
theme_set(theme_rasilab())
```

# Read in data

``` r
counts <- read_csv("../rawdata/20190829_fluc_nluc.csv") %>%
  print()
```

    ## # A tibble: 120 × 3
    ##    well  assay  counts
    ##    <chr> <chr>   <dbl>
    ##  1 B2    nluc   557547
    ##  2 B3    nluc  4208692
    ##  3 B4    nluc  2414334
    ##  4 B5    nluc    18928
    ##  5 B6    nluc   246454
    ##  6 B7    nluc   329587
    ##  7 B8    nluc    95910
    ##  8 B9    nluc    97743
    ##  9 B10   nluc   104240
    ## 10 B11   nluc    75727
    ## # … with 110 more rows
    ## # ℹ Use `print(n = ...)` to see more rows

# Read in annotations

``` r
annotations <- read_csv("../annotations/sampleannotations.csv") %>%
  janitor::clean_names() %>% 
  print()
```

    ## # A tibble: 60 × 6
    ##    well  reporter label                              replicate p22a  label_order
    ##    <chr> <chr>    <chr>                                  <dbl> <chr>       <dbl>
    ##  1 B2    pASHS64  WT UL4                                     1 <NA>           10
    ##  2 B3    pTBHS1   P22A                                       1 <NA>            2
    ##  3 B4    pTBHS2   uORF2 no AUG                               1 <NA>            3
    ##  4 B5    pTBHS3   uORF2 strong Kozak                         1 <NA>            1
    ##  5 B6    pTBHS12  GAPDH stop before uORF2                    1 no             NA
    ##  6 B7    pTBHS13  GAPDH stop before uORF2                    1 yes            NA
    ##  7 B8    pTBHS14  1 eYFP codon longer uORF2                  1 <NA>            9
    ##  8 B9    pTBHS15  2 eYFP codons longer uORF2 (dirty)         1 <NA>           NA
    ##  9 B10   pTBHS15c 2 eYFP codons longer uORF2                 1 <NA>            8
    ## 10 B11   pTBHS16  3 eYFP codons longer uORF2                 1 <NA>            7
    ## # … with 50 more rows
    ## # ℹ Use `print(n = ...)` to see more rows
…
