…
``` r
library(plotrix)
library(tidyverse)
library(rasilabRtemplates)
```

# Read in data

``` r
counts <- read_csv("../rawdata/20220405_fluc_nluc.csv") %>%
  print()
```

    ## # A tibble: 90 × 3
    ##    well  assay counts
    ##    <chr> <chr>  <dbl>
    ##  1 B2    fluc    1252
    ##  2 B3    fluc    6389
    ##  3 B4    fluc    1143
    ##  4 B5    fluc    9256
    ##  5 B6    fluc    8575
    ##  6 B7    fluc    4131
    ##  7 B8    fluc    5081
    ##  8 B9    fluc   10082
    ##  9 B10   fluc   10344
    ## 10 B11   fluc    4503
    ## # … with 80 more rows
    ## # ℹ Use `print(n = ...)` to see more rows

# Read in annotations

``` r
annotations <- read_csv("../annotations/sampleannotations.csv") %>%
  print()
```

    ## # A tibble: 45 × 6
    ##    well  reporter label                             replicate P22A  label_order
    ##    <chr> <chr>    <chr>                                 <dbl> <chr>       <dbl>
    ##  1 B2    pASHS64  gp48UTR                                   1 <NA>            1
    ##  2 B3    pTBHS1   gp48UTR-no-stall                          1 <NA>            2
    ##  3 B4    pTBHS2   gp48UTR-no-AUG                            1 <NA>            3
    ##  4 B5    pTBHS3   gp48UTR-stronger-start                    1 <NA>            5
    ##  5 B6    pTBHS12  GAPDH GACACC stop before uORF2            1 no              2
    ##  6 B7    pTBHS13  GAPDH GACACC stop before uORF2            1 yes             2
    ##  7 B8    pTBHS23  GAPDH no start stop before uORF2          1 no              1
    ##  8 B9    pTBHS24  GAPDH no start stop before uORF2          1 yes             1
    ##  9 B10   pTBHS58  GAPDH GACACC 2 eYFP codons longer         1 no              4
    ## 10 B11   pTBHS59  GAPDH GACACC 2 eYFP codons longer         1 yes             4
    ## # … with 35 more rows
    ## # ℹ Use `print(n = ...)` to see more rows
…
