…
theme_set(theme_rasilab())
```

# Read in data

``` r
counts <- read_csv("../rawdata/20220612_fluc_nluc.csv") %>%
  print()
```

    ## # A tibble: 88 × 3
    ##    well  assay counts
    ##    <chr> <chr>  <dbl>
    ##  1 B1    fluc       4
    ##  2 B2    fluc    2050
    ##  3 B3    fluc    4310
    ##  4 B4    fluc    4317
    ##  5 B5    fluc    5406
    ##  6 B6    fluc     681
    ##  7 B7    fluc    2268
    ##  8 B8    fluc    3490
    ##  9 B9    fluc    7808
    ## 10 B10   fluc    3461
    ## # … with 78 more rows
    ## # ℹ Use `print(n = ...)` to see more rows

# Read in annotations

``` r
annotations <- read_csv("../annotations/sampleannotations.csv") %>%
  print()
```

    ## # A tibble: 44 × 6
    ##    well  reporter label    replicate status label_order
    ##    <chr> <chr>    <chr>        <dbl> <chr>        <dbl>
    ##  1 B1    mock     mock             1 <NA>            NA
    ##  2 B2    pTBHS134 WT               1 -                1
    ##  3 B3    pTBHS135 No-stall         1 -                1
    ##  4 B4    pTBHS134 WT               1 0.25X            2
    ##  5 B5    pTBHS135 No-stall         1 0.25X            2
    ##  6 B6    pTBHS134 WT               1 0.5X             3
    ##  7 B7    pTBHS135 No-stall         1 0.5X             3
    ##  8 B8    pTBHS134 WT               1 1X               4
    ##  9 B9    pTBHS135 No-stall         1 1X               4
    ## 10 B10   pTBHS134 WT               1 2X               5
    ## # … with 34 more rows
    ## # ℹ Use `print(n = ...)` to see more rows
…
  pivot_wider(names_from = assay, values_from = counts) %>%
  left_join(annotations, by = "well") %>%
  mutate(fluc = fluc - mean(fluc[reporter == "mock"]), nluc = nluc - mean(nluc[reporter == "mock"])) %>%
  filter(label != "mock") %>%
  filter(fluc > 0) %>%
  mutate(ratio = log2(nluc) - log2(fluc)) %>% 
  group_by(reporter, status) %>% 
  mutate(mean_ratio = mean(ratio), se_ratio = std.error(ratio)) %>% 
  ungroup() %>%
  select(-well, -fluc, -nluc, -replicate) %>%
  #mutate(label = fct_rev(fct_reorder(label, label_order))) %>%
  print()
```

    ## # A tibble: 40 × 7
    ##    reporter label    status label_order ratio mean_ratio se_ratio
    ##    <chr>    <chr>    <chr>        <dbl> <dbl>      <dbl>    <dbl>
    ##  1 pTBHS134 WT       -                1  1.21       1.09   0.106 
    ##  2 pTBHS135 No-stall -                1  5.23       5.19   0.0885
    ##  3 pTBHS134 WT       0.25X            2  3.81       4.21   0.247 
    ##  4 pTBHS135 No-stall 0.25X            2  6.77       6.63   0.0852
    ##  5 pTBHS134 WT       0.5X             3  2.85       2.33   0.267 
    ##  6 pTBHS135 No-stall 0.5X             3  4.80       4.39   0.274 
    ##  7 pTBHS134 WT       1X               4  4.02       3.89   0.0741
    ##  8 pTBHS135 No-stall 1X               4  6.75       6.71   0.0961
    ##  9 pTBHS134 WT       2X               5  4.36       4.38   0.0851
    ## 10 pTBHS135 No-stall 2X               5  7.26       6.84   0.165 
    ## # … with 30 more rows
    ## # ℹ Use `print(n = ...)` to see more rows
…
# Plot FLuc / NLuc for drug treatment

``` r
plot_data <- data %>%
  mutate(mean_ratio = mean_ratio - norm_data$mean_ratio) %>%
  print()
```

    ## # A tibble: 40 × 7
    ##    reporter label    status label_order ratio mean_ratio se_ratio
    ##    <chr>    <chr>    <chr>        <dbl> <dbl>      <dbl>    <dbl>
    ##  1 pTBHS134 WT       -                1  1.21      -8.39   0.106 
    ##  2 pTBHS135 No-stall -                1  5.23      -4.30   0.0885
    ##  3 pTBHS134 WT       0.25X            2  3.81      -5.28   0.247 
    ##  4 pTBHS135 No-stall 0.25X            2  6.77      -2.85   0.0852
    ##  5 pTBHS134 WT       0.5X             3  2.85      -7.16   0.267 
    ##  6 pTBHS135 No-stall 0.5X             3  4.80      -5.09   0.274 
    ##  7 pTBHS134 WT       1X               4  4.02      -5.60   0.0741
    ##  8 pTBHS135 No-stall 1X               4  6.75      -2.78   0.0961
    ##  9 pTBHS134 WT       2X               5  4.36      -5.11   0.0851
    ## 10 pTBHS135 No-stall 2X               5  7.26      -2.65   0.165 
    ## # … with 30 more rows
    ## # ℹ Use `print(n = ...)` to see more rows
…
